Unit 0: Getting Started Case Study
…
Why do you think we included data/ before our sci-online-classes.csv file? Why quotation marks?

Add your responses after the dashes below:

YOUR RESPONSE HERE

Hint: check the files pane in the lower right corner of RStudio.

Viewing or inspecting data

Last, let’s check that the code worked as we intended; run the next chunk and look at the results, tabbing left or right with the arrows, or scanning through the rows by clicking the numbers at the bottom of the pane with the print-out of the data you loaded:

d

# A tibble: 603 × 30
   student_id course_id  total…¹ total…² perce…³ subject semes…⁴ section Grade…⁵
        <dbl> <chr>        <dbl>   <dbl>   <dbl> <chr>   <chr>   <chr>   <chr>  
 1      43146 FrScA-S21…    3280    2220   0.677 FrScA   S216    02      POINTS…
 2      44638 OcnA-S116…    3531    2672   0.757 OcnA    S116    01      ATTEMP…
 3      47448 FrScA-S21…    2870    1897   0.661 FrScA   S216    01      POINTS…
 4      47979 OcnA-S216…    4562    3090   0.677 OcnA    S216    01      POINTS…
 5      48797 PhysA-S11…    2207    1910   0.865 PhysA   S116    01      POINTS…
 6      51943 FrScA-S21…    4208    3596   0.855 FrScA   S216    03      POINTS…
 7      52326 AnPhA-S21…    4325    2255   0.521 AnPhA   S216    01      POINTS…
 8      52446 PhysA-S11…    2086    1719   0.824 PhysA   S116    01      POINTS…
 9      53447 FrScA-S11…    4655    3149   0.676 FrScA   S116    01      POINTS…
10      53475 FrScA-S11…    1710    1402   0.820 FrScA   S116    02      POINTS…
# … with 593 more rows, 21 more variables: Grade_Category <lgl>,
#   FinalGradeCEMS <dbl>, Points_Possible <dbl>, Points_Earned <dbl>,
#   Gender <chr>, q1 <dbl>, q2 <dbl>, q3 <dbl>, q4 <dbl>, q5 <dbl>, q6 <dbl>,
#   q7 <dbl>, q8 <dbl>, q9 <dbl>, q10 <dbl>, TimeSpent <dbl>,
#   TimeSpent_hours <dbl>, TimeSpent_std <dbl>, int <dbl>, pc <dbl>, uv <dbl>,
#   and abbreviated variable names ¹​total_points_possible,
#   ²​total_points_earned, ³​percentage_earned, ⁴​semester, ⁵​Gradebook_Item
# ℹ Use `print(n = ...)` to see more rows, and `colnames()` to see all variable names
…
Next, we’ll use a few functions that are handy for preparing data in table form.

2. WRANGLE

By wrangle, we refer to the process of cleaning and processing data, and, in cases, merging (or joining) data from multiple sources. Often, this part of the process is very (surprisingly) time-intensive. Wrangling your data into shape can itself be an important accomplishment! There are great tools in R to do this, especially through the use of the {dplyr} R package.

Selecting variables

Let’s select only a few variables by typing our dataset d and “passing” that using the %>% operator to the select() function from the {dplyr} package:

d %>% 
  select(student_id, total_points_possible,
         total_points_earned, TimeSpent)

# A tibble: 603 × 4
   student_id total_points_possible total_points_earned TimeSpent
        <dbl>                 <dbl>               <dbl>     <dbl>
 1      43146                  3280                2220   1555.  
 2      44638                  3531                2672   1383.  
 3      47448                  2870                1897    860.  
 4      47979                  4562                3090   1599.  
 5      48797                  2207                1910   1482.  
 6      51943                  4208                3596      3.45
 7      52326                  4325                2255   1322.  
 8      52446                  2086                1719   1390.  
 9      53447                  4655                3149   1479.  
10      53475                  1710                1402     NA   
# … with 593 more rows
# ℹ Use `print(n = ...)` to see more rows
…
First, we need to figure out what variables exist in our dataset (or be reminded of this - it’s very common in R to be continually checking and inspecting your data)!

In addition to glimpse() function, you can use a function named View() to do this. Try it out and see what happens!

View(d)

Your Turn ⤵

In the code chunk below, add a new variable to the code, being careful to type the new variable name as it appears in the data. I’ve added some code to get you started. Consider how the names of the other variables are separated as you think about how to add an additional variable to this code.

d %>% 
  select(student_id, total_points_possible,
         total_points_earned)

# A tibble: 603 × 3
   student_id total_points_possible total_points_earned
        <dbl>                 <dbl>               <dbl>
 1      43146                  3280                2220
 2      44638                  3531                2672
 3      47448                  2870                1897
 4      47979                  4562                3090
 5      48797                  2207                1910
 6      51943                  4208                3596
 7      52326                  4325                2255
 8      52446                  2086                1719
 9      53447                  4655                3149
10      53475                  1710                1402
# … with 593 more rows
# ℹ Use `print(n = ...)` to see more rows

Once added, the output should be different than in the code above - there should now be an additional variable included in the print-out.

Filtering variables

Next, let’s explore filtering variables. Check out and run the next chunk of code, imagining that we wish to filter our data to view only the rows associated with students who earned a final grade (as a percentage) of 70 - 70% - or higher.

d %>% 
  filter(FinalGradeCEMS > 70)

# A tibble: 438 × 30
   student_id course_id  total…¹ total…² perce…³ subject semes…⁴ section Grade…⁵
        <dbl> <chr>        <dbl>   <dbl>   <dbl> <chr>   <chr>   <chr>   <chr>  
 1      43146 FrScA-S21…    3280    2220   0.677 FrScA   S216    02      POINTS…
 2      44638 OcnA-S116…    3531    2672   0.757 OcnA    S116    01      ATTEMP…
 3      47448 FrScA-S21…    2870    1897   0.661 FrScA   S216    01      POINTS…
 4      47979 OcnA-S216…    4562    3090   0.677 OcnA    S216    01      POINTS…
 5      48797 PhysA-S11…    2207    1910   0.865 PhysA   S116    01      POINTS…
 6      52326 AnPhA-S21…    4325    2255   0.521 AnPhA   S216    01      POINTS…
 7      52446 PhysA-S11…    2086    1719   0.824 PhysA   S116    01      POINTS…
 8      53447 FrScA-S11…    4655    3149   0.676 FrScA   S116    01      POINTS…
 9      53475 FrScA-S21…    1209     977   0.808 FrScA   S216    01      POINTS…
10      54066 OcnA-S116…    4641    3429   0.739 OcnA    S116    01      ATTEMP…
# … with 428 more rows, 21 more variables: Grade_Category <lgl>,
#   FinalGradeCEMS <dbl>, Points_Possible <dbl>, Points_Earned <dbl>,
#   Gender <chr>, q1 <dbl>, q2 <dbl>, q3 <dbl>, q4 <dbl>, q5 <dbl>, q6 <dbl>,
#   q7 <dbl>, q8 <dbl>, q9 <dbl>, q10 <dbl>, TimeSpent <dbl>,
#   TimeSpent_hours <dbl>, TimeSpent_std <dbl>, int <dbl>, pc <dbl>, uv <dbl>,
#   and abbreviated variable names ¹​total_points_possible,
#   ²​total_points_earned, ³​percentage_earned, ⁴​semester, ⁵​Gradebook_Item
# ℹ Use `print(n = ...)` to see more rows, and `colnames()` to see all variable names

Your Turn ⤵

In the next code chunk, change the cut-off from 70% to some other value - larger or smaller (maybe much larger or smaller - feel free to play around with the code a bit!).

d %>% 
  filter(FinalGradeCEMS > 70)

# A tibble: 438 × 30
   student_id course_id  total…¹ total…² perce…³ subject semes…⁴ section Grade…⁵
        <dbl> <chr>        <dbl>   <dbl>   <dbl> <chr>   <chr>   <chr>   <chr>  
 1      43146 FrScA-S21…    3280    2220   0.677 FrScA   S216    02      POINTS…
 2      44638 OcnA-S116…    3531    2672   0.757 OcnA    S116    01      ATTEMP…
 3      47448 FrScA-S21…    2870    1897   0.661 FrScA   S216    01      POINTS…
 4      47979 OcnA-S216…    4562    3090   0.677 OcnA    S216    01      POINTS…
 5      48797 PhysA-S11…    2207    1910   0.865 PhysA   S116    01      POINTS…
 6      52326 AnPhA-S21…    4325    2255   0.521 AnPhA   S216    01      POINTS…
 7      52446 PhysA-S11…    2086    1719   0.824 PhysA   S116    01      POINTS…
 8      53447 FrScA-S11…    4655    3149   0.676 FrScA   S116    01      POINTS…
 9      53475 FrScA-S21…    1209     977   0.808 FrScA   S216    01      POINTS…
10      54066 OcnA-S116…    4641    3429   0.739 OcnA    S116    01      ATTEMP…
# … with 428 more rows, 21 more variables: Grade_Category <lgl>,
#   FinalGradeCEMS <dbl>, Points_Possible <dbl>, Points_Earned <dbl>,
#   Gender <chr>, q1 <dbl>, q2 <dbl>, q3 <dbl>, q4 <dbl>, q5 <dbl>, q6 <dbl>,
#   q7 <dbl>, q8 <dbl>, q9 <dbl>, q10 <dbl>, TimeSpent <dbl>,
#   TimeSpent_hours <dbl>, TimeSpent_std <dbl>, int <dbl>, pc <dbl>, uv <dbl>,
#   and abbreviated variable names ¹​total_points_possible,
#   ²​total_points_earned, ³​percentage_earned, ⁴​semester, ⁵​Gradebook_Item
# ℹ Use `print(n = ...)` to see more rows, and `colnames()` to see all variable names
What happens when you change the cut-off from 70 to something else? Add a thought (or more):

YOUR RESPONSE HERE

Arrange

The last function we’ll use for preparing tables is arrange.

We’ll combine this arrange() function with a function we used already - select(). We do this so we can view only the student ID and their final grade.

d %>% 
  select(student_id, FinalGradeCEMS) %>% 
  arrange(FinalGradeCEMS)

# A tibble: 603 × 2
   student_id FinalGradeCEMS
        <dbl>          <dbl>
 1      90995          0    
 2      92606          0.535
 3      95684          0.903
 4      90996          1.80 
 5      94876          2.93 
 6      92633          3.01 
 7      85390          3.06 
 8      94630          3.43 
 9      90995          5.04 
10      96677          5.2  
# … with 593 more rows
# ℹ Use `print(n = ...)` to see more rows

Note that arrange works by sorting values in ascending order (from lowest to highest); you can change this by using the desc() function with arrange, like the following:

d %>% 
  select(student_id, FinalGradeCEMS) %>% 
  arrange(desc(FinalGradeCEMS))

# A tibble: 603 × 2
   student_id FinalGradeCEMS
        <dbl>          <dbl>
 1      85650          100  
 2      91067           99.8
 3      66740           99.3
 4      86792           99.1
 5      78153           99.0
 6      66689           98.6
 7      88261           98.6
 8      92740           98.6
 9      92726           98.2
10      92741           98.2
# … with 593 more rows
# ℹ Use `print(n = ...)` to see more rows

Your Turn ⤵

In the code chunk below, replace FinalGradeCEMS that is used with both the select() and arrange() functions with a different variable in the data set. Consider returning to the code chunk above in which you glimpsed at the names of all of the variables.

d %>% 
  select(student_id, FinalGradeCEMS) %>% 
  arrange(desc(FinalGradeCEMS))

# A tibble: 603 × 2
   student_id FinalGradeCEMS
        <dbl>          <dbl>
 1      85650          100  
 2      91067           99.8
 3      66740           99.3
 4      86792           99.1
 5      78153           99.0
 6      66689           98.6
 7      88261           98.6
 8      92740           98.6
 9      92726           98.2
10      92741           98.2
# … with 593 more rows
# ℹ Use `print(n = ...)` to see more rows
…
