Unit 3 Case Study: Public Sentiment and the State Standards
…
Data for this case study includes all tweets from January through May of 2020 and includes the following terms: #ccss, common core, #ngsschat, ngss. Since we’ll be working with some computational intensive functions later in this case study that can take some time to run, I restricted the time frame for my search to only a handful of month. Even so, we’ll be working with nearly 30,000 tweets and nearly 1,000,000 words for our analysis!

Let’s use the by now familiar read_csv() function to import our ccss_tweets.csv file saved in our data folder:

ccss_tweets <- read_csv("data/ccss-tweets.csv", 
          col_types = cols(author_id = col_character(), 
                           id = col_character(),
                           conversation_id = col_character(), 
                           in_reply_to_user_id = col_character()
                           )
          )

ccss_tweets

# A tibble: 27,230 × 8
   text               created_at          author_id id    conversation_id source
   <chr>              <dttm>              <chr>     <chr> <chr>           <chr> 
 1 "@catturd2 Hmmmm … 2021-01-02 00:49:28 16098543… 1345… 13451697062071… Twitt…
 2 "@homebrew1500 I … 2021-01-02 00:40:05 12495948… 1345… 13451533915976… Twitt…
 3 "@ClayTravis Dump… 2021-01-02 00:32:46 88770705… 1345… 13450258639942… Twitt…
 4 "@KarenGunby @chi… 2021-01-02 00:24:01 12495948… 1345… 13451533915976… Twitt…
 5 "@keith3048 I kno… 2021-01-02 00:23:42 12527475… 1345… 13451533915976… Twitt…
 6 "Probably common … 2021-01-02 00:18:38 12760173… 1345… 13451625486818… Twitt…
 7 "@LisaS4680 Stupi… 2021-01-02 00:16:11 92213292… 1345… 13451595466087… Twitt…
 8 "@JerryGl29176259… 2021-01-02 00:10:29 12201608… 1345… 13447179758914… Twitt…
 9 "@JBatNC304 @Cawt… 2021-01-02 00:09:15 88091448… 1345… 13447403608625… Twitt…
10 "@chiefaugur I th… 2021-01-01 23:54:38 12495948… 1345… 13451533915976… Twitt…
# ℹ 27,220 more rows
# ℹ 2 more variables: possibly_sensitive <lgl>, in_reply_to_user_id <chr>
…
Your Turn ⤵

Complete the following code chunk to import the NGSS tweets located in the same data folder as our common core tweets and named ngss-tweets.csv. By default, R will treat numerical IDs in our dataset as numeric values but we will need to convert these to characters like demonstrated above for the purpose of analysis. Also, feel free to repurpose the code from above.

ngss_tweets <- read_csv("data/ngss-tweets.csv", 
          col_types = cols(author_id = col_character(), 
                           id = col_character(),
                           conversation_id = col_character(), 
                           in_reply_to_user_id = col_character()
                           )
          )

ngss_tweets

# A tibble: 8,125 × 8
   text               created_at          author_id id    conversation_id source
   <chr>              <dttm>              <chr>     <chr> <chr>           <chr> 
 1 "Please help us R… 2021-01-06 00:50:49 32799077… 1346… 13466201998945… Twitt…
 2 "What lab materia… 2021-01-06 00:45:32 10103246… 1346… 13466188701325… Hoots…
 3 "I recently saw a… 2021-01-06 00:39:37 61829645  1346… 13466173820858… Twitt…
 4 "I'm thrilled to … 2021-01-06 00:30:13 461653415 1346… 13466150172071… Twitt…
 5 "PLS RT. Excited … 2021-01-06 00:15:05 22293234  1346… 13466112069671… Twitt…
 6 "Inspired by Marg… 2021-01-06 00:00:00 33179602… 1346… 13466074140999… Tweet…
 7 "PLTW Launch is d… 2021-01-05 23:45:06 17276863  1346… 13466036638386… Hoots…
 8 "@NGSS_tweeps How… 2021-01-05 23:24:01 10230543… 1346… 13464677409499… Twitt…
 9 "@NGSS_tweeps I d… 2021-01-05 23:21:56 10230543… 1346… 13464677409499… Twitt…
10 "January 31st is … 2021-01-05 23:10:03 23679615  1346… 13465948440435… Hoots…
# ℹ 8,115 more rows
# ℹ 2 more variables: possibly_sensitive <lgl>, in_reply_to_user_id <chr>
…
conversation_id for examining sentiment by conversations

id for the unique reference id for each tweet and useful for counts

ccss_tweets_2 <- ccss_tweets_1 |> 
  select(text,
         author_id,
         created_at, 
         conversation_id,
         id)

ccss_tweets_2

# A tibble: 27,122 × 5
   text                      author_id created_at          conversation_id id   
   <chr>                     <chr>     <dttm>              <chr>           <chr>
 1 "@catturd2 Hmmmm “common… 16098543… 2021-01-02 00:49:28 13451697062071… 1345…
 2 "@homebrew1500 I agree. … 12495948… 2021-01-02 00:40:05 13451533915976… 1345…
 3 "@ClayTravis Dump revisi… 88770705… 2021-01-02 00:32:46 13450258639942… 1345…
 4 "@KarenGunby @chiefaugur… 12495948… 2021-01-02 00:24:01 13451533915976… 1345…
 5 "@keith3048 I know I am … 12527475… 2021-01-02 00:23:42 13451533915976… 1345…
 6 "Probably common core ed… 12760173… 2021-01-02 00:18:38 13451625486818… 1345…
 7 "@LisaS4680 Stupid is as… 92213292… 2021-01-02 00:16:11 13451595466087… 1345…
 8 "@JerryGl29176259 @3Year… 12201608… 2021-01-02 00:10:29 13447179758914… 1345…
 9 "@JBatNC304 @Cawthornfor… 88091448… 2021-01-02 00:09:15 13447403608625… 1345…
10 "@chiefaugur I think the… 12495948… 2021-01-01 23:54:38 13451533915976… 1345…
# ℹ 27,112 more rows
…
Note: The select() function will also reorder your columns based on the order in which you list them.

Use the code chunk below to reorder the columns to your liking and assign to ccss_tweets_3:

ccss_tweets_3 <- ccss_tweets_2 |> 
  select(id,
         text,
         author_id,
         created_at, 
         conversation_id)

ccss_tweets_3

# A tibble: 27,122 × 5
   id                  text        author_id created_at          conversation_id
   <chr>               <chr>       <chr>     <dttm>              <chr>          
 1 1345170311105404928 "@catturd2… 16098543… 2021-01-02 00:49:28 13451697062071…
 2 1345167946855964674 "@homebrew… 12495948… 2021-01-02 00:40:05 13451533915976…
 3 1345166106013519873 "@ClayTrav… 88770705… 2021-01-02 00:32:46 13450258639942…
 4 1345163904670969857 "@KarenGun… 12495948… 2021-01-02 00:24:01 13451533915976…
 5 1345163823221792769 "@keith304… 12527475… 2021-01-02 00:23:42 13451533915976…
 6 1345162548681863168 "Probably … 12760173… 2021-01-02 00:18:38 13451625486818…
 7 1345161934551863296 "@LisaS468… 92213292… 2021-01-02 00:16:11 13451595466087…
 8 1345160500666109954 "@JerryGl2… 12201608… 2021-01-02 00:10:29 13447179758914…
 9 1345160188542726144 "@JBatNC30… 88091448… 2021-01-02 00:09:15 13447403608625…
10 1345156508842151936 "@chiefaug… 12495948… 2021-01-01 23:54:38 13451533915976…
# ℹ 27,112 more rows
…
Merge Data Frames

Finally, let’s combine our CCSS and NGSS tweets into a single data frame by using the union() function from dplyr and simply supplying the data frames that you want to combine as arguments:

ss_tweets <- union(ccss_tweets_clean,
                   ngss_tweets_clean)

ss_tweets

# A tibble: 35,233 × 6
   standards text            author_id created_at          conversation_id id   
   <chr>     <chr>           <chr>     <dttm>              <chr>           <chr>
 1 ccss      "@catturd2 Hmm… 16098543… 2021-01-02 00:49:28 13451697062071… 1345…
 2 ccss      "@homebrew1500… 12495948… 2021-01-02 00:40:05 13451533915976… 1345…
 3 ccss      "@ClayTravis D… 88770705… 2021-01-02 00:32:46 13450258639942… 1345…
 4 ccss      "@KarenGunby @… 12495948… 2021-01-02 00:24:01 13451533915976… 1345…
 5 ccss      "@keith3048 I … 12527475… 2021-01-02 00:23:42 13451533915976… 1345…
 6 ccss      "Probably comm… 12760173… 2021-01-02 00:18:38 13451625486818… 1345…
 7 ccss      "@LisaS4680 St… 92213292… 2021-01-02 00:16:11 13451595466087… 1345…
 8 ccss      "@JerryGl29176… 12201608… 2021-01-02 00:10:29 13447179758914… 1345…
 9 ccss      "@JBatNC304 @C… 88091448… 2021-01-02 00:09:15 13447403608625… 1345…
10 ccss      "@chiefaugur I… 12495948… 2021-01-01 23:54:38 13451533915976… 1345…
# ℹ 35,223 more rows

Note that when creating a “union” like this (i.e. stacking one data frame on top of another), you should have the same number of columns in each data frame and they should be in the exact same order.

Alternatively, we could have used the bind_rows() function from {dplyr} as well:

ss_tweets <- bind_rows(ccss_tweets_clean,
                       ngss_tweets_clean)

ss_tweets

# A tibble: 35,233 × 6
   standards text            author_id created_at          conversation_id id   
   <chr>     <chr>           <chr>     <dttm>              <chr>           <chr>
 1 ccss      "@catturd2 Hmm… 16098543… 2021-01-02 00:49:28 13451697062071… 1345…
 2 ccss      "@homebrew1500… 12495948… 2021-01-02 00:40:05 13451533915976… 1345…
 3 ccss      "@ClayTravis D… 88770705… 2021-01-02 00:32:46 13450258639942… 1345…
 4 ccss      "@KarenGunby @… 12495948… 2021-01-02 00:24:01 13451533915976… 1345…
 5 ccss      "@keith3048 I … 12527475… 2021-01-02 00:23:42 13451533915976… 1345…
 6 ccss      "Probably comm… 12760173… 2021-01-02 00:18:38 13451625486818… 1345…
 7 ccss      "@LisaS4680 St… 92213292… 2021-01-02 00:16:11 13451595466087… 1345…
 8 ccss      "@JerryGl29176… 12201608… 2021-01-02 00:10:29 13447179758914… 1345…
 9 ccss      "@JBatNC304 @C… 88091448… 2021-01-02 00:09:15 13447403608625… 1345…
10 ccss      "@chiefaugur I… 12495948… 2021-01-01 23:54:38 13451533915976… 1345…
# ℹ 35,223 more rows
…
Other columns, such as author_id and created_at, are retained.

All punctuation has been removed.

Tokens have been changed to lowercase, which makes them easier to compare or combine with other datasets (use the to_lower = FALSE argument to turn off if desired).

Note: Since {tidytext} follows tidy data principles, we also could have used the |> operator to pass our data frame to the unnest_tokens() function like so:

ss_tokens <- ss_tweets |>
  unnest_tokens(output = word, 
                input = text)

ss_tokens

# A tibble: 911,173 × 6
   standards author_id           created_at          conversation_id id    word 
   <chr>     <chr>               <dttm>              <chr>           <chr> <chr>
 1 ccss      1609854356          2021-01-02 00:49:28 13451697062071… 1345… catt…
 2 ccss      1609854356          2021-01-02 00:49:28 13451697062071… 1345… hmmmm
 3 ccss      1609854356          2021-01-02 00:49:28 13451697062071… 1345… comm…
 4 ccss      1609854356          2021-01-02 00:49:28 13451697062071… 1345… core 
 5 ccss      1609854356          2021-01-02 00:49:28 13451697062071… 1345… math 
 6 ccss      1609854356          2021-01-02 00:49:28 13451697062071… 1345… now  
 7 ccss      1609854356          2021-01-02 00:49:28 13451697062071… 1345… makes
 8 ccss      1609854356          2021-01-02 00:49:28 13451697062071… 1345… sense
 9 ccss      1249594897113513985 2021-01-02 00:40:05 13451533915976… 1345… home…
10 ccss      1249594897113513985 2021-01-02 00:40:05 13451533915976… 1345… i    
# ℹ 911,163 more rows

Your Turn ⤵

Before we move any further let’s take a quick look at the most common word in our two datasets. To do so, use count() function from the {dplyr} package and include the sort = TRUE.

Hint: Like most functions we’ve introduced, the first argument count() expects is a data frame, followed by the column, in our case word, whose values we want to count:

ss_tokens |>
  count(word, sort = TRUE)

# A tibble: 66,859 × 2
   word       n
   <chr>  <int>
 1 common 27199
 2 core   26992
 3 the    25896
 4 to     20549
 5 and    15686
 6 t.co   15389
 7 https  15377
 8 of     13130
 9 a      12543
10 math   12208
# ℹ 66,849 more rows
…
Notice that we’ve specified the by = argument to look for matching words in the word column for both data sets and remove any rows from the tweet_tokens dataset that match the stop_words dataset.

When we first tokenized our dataset I conveniently chose output = word as the column name because it matches the column name word in the stop_words dataset contained in the tidytext package. This makes our call to anti_join()simpler because anti_join() knows to look for the column named word in each dataset.

However the by = argument wasn’t really necessary since word is the only matching column name in both datasets and it would have matched those columns by default.

Your Turn ⤵

Use the code chunk below to take a quick count of the most common tokens in our ss_tweets_2 data frame to see if the results are a little more meaningful, then answer the questions that follow.

ss_tokens_1 |>
  count(word, sort = TRUE)

# A tibble: 66,166 × 2
   word         n
   <chr>    <int>
 1 common   27199
 2 core     26992
 3 t.co     15389
 4 https    15377
 5 math     12208
 6 ngss      4290
 7 ngsschat  3284
 8 amp       3084
 9 science   2905
10 students  2577
# ℹ 66,156 more rows
…
Let’s create a custom stop word list by using the simple c() function to combine our words. We can then add a filter to keep rows where words in our word column do NOT ! match words %in% my_stopwords list:

my_stopwords <- c("amp", "=", "+", "t.co", "https")

ss_tokens_2 <-
  ss_tokens_1 |>
  filter(!word %in% my_stopwords)

Let’s take a look at our top words again and see if that did the trick:

ss_tokens_2 |>
  count(word, sort = TRUE)

# A tibble: 66,163 × 2
   word          n
   <chr>     <int>
 1 common    27199
 2 core      26992
 3 math      12208
 4 ngss       4290
 5 ngsschat   3284
 6 science    2905
 7 students   2577
 8 education  2493
 9 standards  2332
10 school     2212
# ℹ 66,153 more rows
…
First, let’s take advantage of the |> operator to combine some of the functions we’ve used above with the top_n() function from the {dplyr} package. By default, this function is looking for a data frame as the first argument, and then the number of rows to return.

Let’s take a look at the top tokens among the CCSS tweets by filtering our standards by CCSS, counting the number of times each word occurs, and taking the look at the 50 most common words:

ccss_top_tokens <- ss_tidy_tweets |>
  filter(standards == "ccss") |>
  count(word, sort = TRUE) |>
  top_n(50)

Selecting by n

ccss_top_tokens

# A tibble: 50 × 2
   word          n
   <chr>     <int>
 1 common    27132
 2 core      26924
 3 math      12085
 4 education  2104
 5 standards  1856
 6 school     1855
 7 kids       1814
 8 grade      1484
 9 people     1420
10 schools    1299
# ℹ 40 more rows
…
To specify our tokens as bigrams, we do add token = "ngrams" to the unnest_tokens() function and setting n to the number of words in each n-gram. Let’s set n to 2, so we can examine pairs of two consecutive words, often called “bigrams”:

ngss_bigrams <- ngss_tweets |> 
  unnest_tokens(bigram, 
                text, 
                token = "ngrams", 
                n = 2)

Before we move any further let’s take a quick look at the most common bigrams in our NGSS tweets:

ngss_bigrams |> 
  count(bigram, sort = TRUE)

# A tibble: 111,411 × 2
   bigram             n
   <chr>          <int>
 1 https t.co      6240
 2 ngsschat https   721
 3 of the           630
 4 in the           531
 5 ngss https       455
 6 the ngss         403
 7 to the           318
 8 for the          295
 9 to be            272
10 on the           239
# ℹ 111,401 more rows
…
bigrams_filtered <- bigrams_separated |>
  filter(!word1 %in% stop_words$word) |>
  filter(!word2 %in% stop_words$word)

tidy_bigrams <- bigrams_filtered |>
  unite(bigram, word1, word2, sep = " ")

Let’s take a look at our bigram counts now:

tidy_bigrams |> 
  count(bigram, sort = TRUE)

# A tibble: 45,507 × 2
   bigram                n
   <chr>             <int>
 1 https t.co         6240
 2 ngsschat https      721
 3 ngss https          455
 4 ngss ngsschat       236
 5 ngss aligned        192
 6 ngss standards      168
 7 ngss science        154
 8 science education   148
 9 science standards   112
10 teachers https      106
# ℹ 45,497 more rows
…
tidy_bigrams <- bigrams_separated |>
  filter(!word1 %in% stop_words$word) |>
  filter(!word2 %in% stop_words$word) |>
  filter(!word1 %in% my_words) |>
  filter(!word2 %in% my_words) |>
  unite(bigram, word1, word2, sep = " ")

Note that since my_words is just a vector of words and not a data frame like stop_words, we do not need to select the word column using the $ operator.

Let’s take another quick count of our bigrams:

tidy_bigrams |> 
  count(bigram, sort = TRUE)

# A tibble: 37,539 × 2
   bigram                          n
   <chr>                       <int>
 1 ngss ngsschat                 236
 2 ngss aligned                  192
 3 ngss standards                168
 4 ngss science                  154
 5 science education             148
 6 science standards             112
 7 ngss_tweeps ngsschat           96
 8 science ngss                   94
 9 bmsscienceteach ngss_tweeps    92
10 approved approach              89
# ℹ 37,529 more rows
…
AFINN assigns words with a score that runs between -5 and 5, with negative scores indicating negative sentiment and positive scores indicating positive sentiment.

bing categorizes words in a binary fashion into positive and negative categories.

nrc categorizes words in a binary fashion (“yes”/“no”) into categories of positive, negative, anger, anticipation, disgust, fear, joy, sadness, surprise, and trust.

Note that if this is your first time using the AFINN and NRC lexicons, you may prompted to download both. Respond yes to the prompt by entering “1” and the NRC and AFINN lexicons will download. You’ll only have to do this the first time you use the NRC lexicon.

Let’s take a quick look at each of these lexicons using the get_sentiments() function and assign them to their respective names for later use:

afinn <- get_sentiments("afinn")

afinn

# A tibble: 2,477 × 2
   word       value
   <chr>      <dbl>
 1 abandon       -2
 2 abandoned     -2
 3 abandons      -2
 4 abducted      -2
 5 abduction     -2
 6 abductions    -2
 7 abhor         -3
 8 abhorred      -3
 9 abhorrent     -3
10 abhors        -3
# ℹ 2,467 more rows

bing <- get_sentiments("bing")

bing

# A tibble: 6,786 × 2
   word        sentiment
   <chr>       <chr>    
 1 2-faces     negative 
 2 abnormal    negative 
 3 abolish     negative 
 4 abominable  negative 
 5 abominably  negative 
 6 abominate   negative 
 7 abomination negative 
 8 abort       negative 
 9 aborted     negative 
10 aborts      negative 
# ℹ 6,776 more rows

nrc <- get_sentiments("nrc")

nrc

# A tibble: 13,875 × 2
   word        sentiment
   <chr>       <chr>    
 1 abacus      trust    
 2 abandon     fear     
 3 abandon     negative 
 4 abandon     sadness  
 5 abandoned   anger    
 6 abandoned   fear     
 7 abandoned   negative 
 8 abandoned   sadness  
 9 abandonment anger    
10 abandonment fear     
# ℹ 13,865 more rows

And just out of curiosity, let’s take a look at the loughran lexicon as well:

loughran <- get_sentiments("loughran")

loughran

# A tibble: 4,150 × 2
   word         sentiment
   <chr>        <chr>    
 1 abandon      negative 
 2 abandoned    negative 
 3 abandoning   negative 
 4 abandonment  negative 
 5 abandonments negative 
 6 abandons     negative 
 7 abdicated    negative 
 8 abdicates    negative 
 9 abdicating   negative 
10 abdication   negative 
# ℹ 4,140 more rows
…
